\relax 
\providecommand\zref@newlabel[2]{}
\providecommand\hyper@newdestlabel[2]{}
\providecommand*\new@tpo@label[2]{}
\providecommand\HyperFirstAtBeginDocument{\AtBeginDocument}
\HyperFirstAtBeginDocument{\ifx\hyper@anchor\@undefined
\global\let\oldcontentsline\contentsline
\gdef\contentsline#1#2#3#4{\oldcontentsline{#1}{#2}{#3}}
\global\let\oldnewlabel\newlabel
\gdef\newlabel#1#2{\newlabelxx{#1}#2}
\gdef\newlabelxx#1#2#3#4#5#6{\oldnewlabel{#1}{{#2}{#3}}}
\AtEndDocument{\ifx\hyper@anchor\@undefined
\let\contentsline\oldcontentsline
\let\newlabel\oldnewlabel
\fi}
\fi}
\global\let\hyper@last\relax 
\gdef\HyperFirstAtBeginDocument#1{#1}
\providecommand\HyField@AuxAddToFields[1]{}
\providecommand\HyField@AuxAddToCoFields[2]{}
\newpmemlabel{^_1}{1}
\zref@newlabel{mdf@pagelabel-2}{\default{}\page{1}\abspage{1}\mdf@pagevalue{1}}
\pgfsyspdfmark {pgfid2}{12477599}{21738084}
\newlabel{A subsectio can be used as this}{{}{2}{}{Doc-Start}{}}
\newlabel{acknowledgment}{{}{4}{}{Doc-Start}{}}
\citation{Adams}
\citation{AhujaEtal}
\citation{vonNeumann}
\citation{ReadTutte}
\citation{Shapiro}
\citation{Goemans}
\citation{Seibert}
\citation{Jones}
\citation{Ponza}
\citation{Wilson}
\bibstyle{plain}
\bibdata{sample}
\bibcite{Adams}{1}
\bibcite{AhujaEtal}{2}
\bibcite{Goemans}{3}
\bibcite{Jones}{4}
\bibcite{Ponza}{5}
\bibcite{ReadTutte}{6}
\bibcite{Seibert}{7}
\bibcite{Shapiro}{8}
\bibcite{vonNeumann}{9}
\bibcite{Wilson}{10}
